10: Qualtrics and Labelled Data
…
Most of the following examples are drawn from the “Introduction to labelled” vignette from the {labelled} package. If you want to do something with labelled data that isn’t covered here, that’s a good place to start!

Let’s start off by having a look at the dataset. As usual, you can call the dataset or use View() on it directly, but we’re going to take advantage of the new data type to get a more helpful summary, that emulates the “Variable View” in SPSS.

Exercise

Use the generate_dictionary() function from the {labelled} packages to create a data dictionary for mil_dict, then pipe it into View().

Solution

mil_data |> 
  labelled::generate_dictionary() |>
  View()

# A tibble: 41 × 7
     pos variable            label          col_type missing levels value_labels
   <int> <chr>               <chr>          <chr>      <int> <name> <chr>       
 1     1 StartDate           Start Date     dttm           0 <NULL> ""          
 2     2 EndDate             End Date       dttm           0 <NULL> ""          
 3     3 Status              Response Type  dbl+lbl        0 <NULL> "IP Address…
 4     4 Finished            Finished       dbl+lbl        0 <NULL> "False, Tru…
 5     5 RecordedDate        Recorded Date  dttm           0 <NULL> ""          
 6     6 ResponseId          Response ID    chr            0 <NULL> ""          
 7     7 DistributionChannel Distribution … chr            0 <NULL> ""          
 8     8 UserLanguage        User Language  chr            0 <NULL> ""          
 9     9 english_fluency_1   Please select… dbl+lbl        0 <NULL> "Very well,…
10    10 age                 How old are y… dbl            0 <NULL> ""          
# ℹ 31 more rows
…
Separate the label column

5

At the ” - ” delimiter

6

Into two new columns called “label” and “item_label” respectively

7

If there are too few pieces (that is, for the rows where there is no delimiter), fill in values from the start.

# A tibble: 41 × 8
     pos variable          label item_label col_type missing levels value_labels
   <int> <chr>             <chr> <chr>      <chr>      <int> <name> <named list>
 1     1 StartDate         Star… <NA>       dttm           0 <NULL> <NULL>      
 2     2 EndDate           End … <NA>       dttm           0 <NULL> <NULL>      
 3     3 Status            Resp… <NA>       dbl+lbl        0 <NULL> <dbl [12]>  
 4     4 Finished          Fini… <NA>       dbl+lbl        0 <NULL> <dbl [2]>   
 5     5 RecordedDate      Reco… <NA>       dttm           0 <NULL> <NULL>      
 6     6 ResponseId        Resp… <NA>       chr            0 <NULL> <NULL>      
 7     7 DistributionChan… Dist… <NA>       chr            0 <NULL> <NULL>      
 8     8 UserLanguage      User… <NA>       chr            0 <NULL> <NULL>      
 9     9 english_fluency_1 Plea… How well … dbl+lbl        0 <NULL> <dbl [4]>   
10    10 age               How … <NA>       dbl            0 <NULL> <NULL>      
# ℹ 31 more rows
…
Tip

Factors are so common and useful in R that they have a whole {tidyverse} package to themselves! You already installed {forcats} with {tidyverse}, but you can check out the help documentation if you’d like to learn more about working with factors.

The useful thing about labelled data that it’s very easy to convert into factors, which is what R expects for many different types of analysis and plotting functions. Handy!

For an individual variable, we can use labelled::to_factor() to convert to factor. Let’s compare before and after:

mil_data |> 
  dplyr::mutate(
    gender_fct = labelled::to_factor(gender),
    .keep = "used"
  )

# A tibble: 164 × 2
   gender          gender_fct
   <dbl+lbl>       <fct>     
 1  1 [Female]     Female    
 2  1 [Female]     Female    
 3  1 [Female]     Female    
 4  1 [Female]     Female    
 5  2 [Non-binary] Non-binary
 6  0 [Male]       Male      
 7  1 [Female]     Female    
 8  0 [Male]       Male      
 9  1 [Female]     Female    
10 NA              <NA>      
# ℹ 154 more rows

If you wanted a specific order of the levels, for plotting or similar, there’s also a sort_levels = argument described in the help documentation.

Numeric

For continuous variables, we don’t need anything fancy to turn them into numeric data, because they technically already are. Instead, we just need to get rid of the labels.

mil_data |> 
  dplyr::mutate(
    belonging_1_num = unclass(belonging_1),
    belonging_1_lab = labelled::labelled(belonging_1_num),
    .keep = "used"
  )

# A tibble: 164 × 3
   belonging_1                    belonging_1_num belonging_1_lab
   <dbl+lbl>                                <dbl> <dbl+lbl>      
 1 6 [Agree]                                    6 6              
 2 4 [Neither Agree nor Disagree]               4 4              
 3 7 [Strongly agree]                           7 7              
 4 2 [Disagree]                                 2 2              
 5 6 [Agree]                                    6 6              
 6 5 [Somewhat agree]                           5 5              
 7 5 [Somewhat agree]                           5 5              
 8 2 [Disagree]                                 2 2              
 9 6 [Agree]                                    6 6              
10 5 [Somewhat agree]                           5 5              
# ℹ 154 more rows
…
